Final CMSC320 Project
…
## Parsed with column specification:
## cols(
##   .default = col_double(),
##   name = col_character(),
##   country_or = col_character()
## )

## See spec(...) for full column specifications.

# Displaying a preview of the data stored in our R program
as_tibble(refugee_tab)

## # A tibble: 193 x 21
##    yr_2007 cartodb_id name  country_or yr_2000 yr_2001 yr_2002 yr_2003
##      <dbl>      <dbl> <chr> <chr>        <dbl>   <dbl>   <dbl>   <dbl>
##  1 3609746          1 Afgh Afghanist 4778785 5166652 6013458 3174558
##  2  198970          2 Ango Angola      705464  695600  736745  474278
##  3   16982          3 Alba Albania       9620   11604   15756   14920
##  4      12          4 Ando Andorra          3       8      13      13
##  5     318          5 Unit United Ar      25      49      69      45
##  6    1292          6 Arge Argentina     2172    2112    2104    1919
##  7   19419          7 Arme Armenia      11014   13286   18918   18129
##  8      25          8 Anti Antigua a       9      13      46      31
##  9      64          9 Aust Australia        7      12      25      22
## 10     501         10 Aust Austria         39      33      84      77
## #  with 183 more rows, and 13 more variables: yr_2004 <dbl>,
## #   yr_2005 <dbl>, yr_2006 <dbl>, yr_2008 <dbl>, yr_2009 <dbl>,
## #   yr_2010 <dbl>, yr_2011 <dbl>, yr_2012 <dbl>, yr_2013 <dbl>,
## #   yr_2014 <dbl>, yr_2015 <dbl>, yr_2016 <dbl>, yr_2017 <dbl>
…
This is the code that will bind all our temp variables together into one tall data frame.

refugee_df <- bind_rows(temp2017, temp2016, temp2015, temp2014, temp2013, temp2012, temp2011,
                        temp2010, temp2009, temp2008, temp2007, temp2006, temp2005, temp2004,
                        temp2003, temp2002, temp2001, temp2000)
as_tibble(refugee_df)

## # A tibble: 3,474 x 3
##    name                 num_refugees  year
##    <chr>                       <dbl> <dbl>
##  1 Afghanistan               5336564  2017
##  2 Angola                      33831  2017
##  3 Albania                     30918  2017
##  4 Andorra                        NA  2017
##  5 United Arab Emirates          325  2017
##  6 Argentina                     466  2017
##  7 Armenia                     25697  2017
##  8 Antigua and Barbuda           153  2017
##  9 Australia                      12  2017
## 10 Austria                        27  2017
## #  with 3,464 more rows
…
